{

    "supplierlabel":"New Supplier",
    "internal_name":"Internal Name*",
    "internal_name_value":"Arivarasan",
    "external_namelabel":"External Name",
    "external_name":"Arivu",
    "Description_label":"Description",
    "Description_value":"coimbatore to be workplace",
    "industry_option_label":"industry",
    "industry_option_value":"Engineering",
    "no_of_employee_label":"No. Employees",
    "no_of_employee_value":"5",
    "date_label":"Date",
    "address1_label":"Address",
    "address1_value":"Atmecs Global Technology",
    "address2_label":"Address 2",
    "address2_value":"India Land",
    "city_label":"City",
    "city_value":"Coimbatore",
    "state_label":"State",
    "state_value":"Tamil Nadu",
    "zip_label":"Zip",
    "zip_value":"641035",
    "fileuplaod_label":"Add File",
    "filepath_value":"cypress/fixtures/logo.png",
    "cfo_name":"Mary, Hooper",
    "ceo_name":"Tim, Moore",
    "hr_name":"Jim, Floyd",
    "administrator_name":"John, Beeper",
    "save_button_label":"Save",
    "externaltoUpdate":"ENEL",
    "externalforupadte":"Arivu2491",
    "recurrent_Supplierlabel":"Recurrent Supplier",
    "export_supplierlabel":"Export CSV",
    "external_name_value":"HR Expert"
}