"Status","Start Time","Stop Time","Duration in ms","Parent Suite","Suite","Sub Suite","Test Class","Test Method","Name","Description"
"failed","Fri Mar 03 15:47:15 IST 2023","Fri Mar 03 15:47:22 IST 2023","7692","","creating the suppliers","","","","checking of creating the suppliers",""
"passed","Fri Mar 03 15:46:59 IST 2023","Fri Mar 03 15:47:08 IST 2023","8913","","creating the suppliers","","","","checking the suppliers after deleting some information",""
