{
  "cypress\\e2e\\3-cutomized-examples\\supplier_creation.cy.js": {
    "creating the suppliers -> checking of creating the suppliers": [
      {
        "type": "cy:command",
        "severity": "success",
        "message": "visit\thttps://www.rpasamples.com/suppliers"
      },
      {
        "type": "cy:command",
        "severity": "success",
        "message": "title\t"
      },
      {
        "type": "cy:command",
        "severity": "success",
        "message": "assert\texpected **UiPath Demo App** to equal **UiPath Demo App**"
      },
      {
        "type": "cy:log",
        "severity": "success",
        "message": "This is a log message [object Object]"
      },
      {
        "type": "cy:command",
        "severity": "success",
        "message": "xpath\t//button//span[text()='New Supplier'] | //span[normalize-space(text())='Contact persons']//parent::div//following::div/h3[text()='New Supplier']//following-sibling::div/button |//button//following-sibling::a/span[text()='New Supplier']"
      },
      {
        "type": "cy:command",
        "severity": "success",
        "message": "scrollIntoView\t"
      },
      {
        "type": "cy:command",
        "severity": "success",
        "message": "assert\texpected **<span.sc-jzJRlG.hxyKHp>** to be **visible**"
      },
      {
        "type": "cy:command",
        "severity": "success",
        "message": "xpath\t//button//span[text()='New Supplier'] | //span[normalize-space(text())='Contact persons']//parent::div//following::div/h3[text()='New Supplier']//following-sibling::div/button |//button//following-sibling::a/span[text()='New Supplier']"
      },
      {
        "type": "cy:command",
        "severity": "success",
        "message": "scrollIntoView\t"
      },
      {
        "type": "cy:command",
        "severity": "success",
        "message": "click\t{force: true}"
      },
      {
        "type": "cy:xhr",
        "severity": "success",
        "message": "POST https://dc.services.visualstudio.com/v2/track\nStatus: 200"
      },
      {
        "type": "cy:command",
        "severity": "success",
        "message": "xpath\t//label[normalize-space(text())='Internal Name*']//following-sibling::div/input | //label[normalize-space(text())='Internal Name*']//following-sibling::div/textarea"
      },
      {
        "type": "cy:command",
        "severity": "success",
        "message": "scrollIntoView\t"
      },
      {
        "type": "cy:command",
        "severity": "success",
        "message": "assert\texpected **<input#TextField219.ms-TextField-field.field-146>** to be **visible**"
      },
      {
        "type": "cy:command",
        "severity": "success",
        "message": "xpath\t//label[normalize-space(text())='Internal Name*']//following-sibling::div/input | //label[normalize-space(text())='Internal Name*']//following-sibling::div/textarea"
      },
      {
        "type": "cy:command",
        "severity": "success",
        "message": "eq\t0"
      },
      {
        "type": "cy:command",
        "severity": "success",
        "message": "click\t"
      },
      {
        "type": "cy:command",
        "severity": "success",
        "message": "clear\t"
      },
      {
        "type": "cy:command",
        "severity": "success",
        "message": "type\tArivarasan, {force: true}"
      },
      {
        "type": "cy:command",
        "severity": "success",
        "message": "xpath\t//label[normalize-space(text())='External Name']//following-sibling::div/input | //label[normalize-space(text())='External Name']//following-sibling::div/textarea"
      },
      {
        "type": "cy:command",
        "severity": "success",
        "message": "scrollIntoView\t"
      },
      {
        "type": "cy:command",
        "severity": "success",
        "message": "assert\texpected **<input#TextField222.ms-TextField-field.field-146>** to be **visible**"
      },
      {
        "type": "cy:command",
        "severity": "success",
        "message": "xpath\t//label[normalize-space(text())='External Name']//following-sibling::div/input | //label[normalize-space(text())='External Name']//following-sibling::div/textarea"
      },
      {
        "type": "cy:command",
        "severity": "success",
        "message": "eq\t0"
      },
      {
        "type": "cy:command",
        "severity": "success",
        "message": "click\t"
      },
      {
        "type": "cy:command",
        "severity": "success",
        "message": "clear\t"
      },
      {
        "type": "cy:command",
        "severity": "success",
        "message": "type\tArivu, {force: true}"
      },
      {
        "type": "cy:command",
        "severity": "success",
        "message": "xpath\t//label[normalize-space(text())='Description']//following-sibling::div/input | //label[normalize-space(text())='Description']//following-sibling::div/textarea"
      },
      {
        "type": "cy:command",
        "severity": "success",
        "message": "scrollIntoView\t"
      },
      {
        "type": "cy:command",
        "severity": "success",
        "message": "assert\texpected **<textarea#TextField225.ms-TextField-field.field-154>** to be **visible**"
      },
      {
        "type": "cy:command",
        "severity": "success",
        "message": "xpath\t//label[normalize-space(text())='Description']//following-sibling::div/input | //label[normalize-space(text())='Description']//following-sibling::div/textarea"
      },
      {
        "type": "cy:command",
        "severity": "success",
        "message": "eq\t0"
      },
      {
        "type": "cy:command",
        "severity": "success",
        "message": "click\t"
      },
      {
        "type": "cy:command",
        "severity": "success",
        "message": "clear\t"
      },
      {
        "type": "cy:command",
        "severity": "success",
        "message": "type\tcoimbatore to be workplace, {force: true}"
      },
      {
        "type": "cy:command",
        "severity": "success",
        "message": "get\t[id='industry']>span[role='option']"
      },
      {
        "type": "cy:command",
        "severity": "success",
        "message": "scrollIntoView\t"
      },
      {
        "type": "cy:command",
        "severity": "success",
        "message": "assert\texpected **<span#industry-option.ms-Dropdown-title.ms-Dropdown-titleIsPlaceHolder.title-74>** to exist in the DOM"
      },
      {
        "type": "cy:command",
        "severity": "success",
        "message": "get\t[id='industry']>span[role='option']"
      },
      {
        "type": "cy:command",
        "severity": "success",
        "message": "scrollIntoView\t"
      },
      {
        "type": "cy:command",
        "severity": "success",
        "message": "click\t"
      },
      {
        "type": "cy:command",
        "severity": "success",
        "message": "xpath\t//button//span[normalize-space(text())='Engineering']"
      },
      {
        "type": "cy:command",
        "severity": "success",
        "message": "invoke\t.show()"
      },
      {
        "type": "cy:command",
        "severity": "success",
        "message": "xpath\t//button//span[normalize-space(text())='Engineering']"
      },
      {
        "type": "cy:command",
        "severity": "success",
        "message": "click\t{force: true}"
      },
      {
        "type": "cy:command",
        "severity": "success",
        "message": "xpath\t//label[normalize-space(text())='No. Employees']//following-sibling::div/input | //label[normalize-space(text())='No. Employees']//following-sibling::div/textarea"
      },
      {
        "type": "cy:command",
        "severity": "success",
        "message": "scrollIntoView\t"
      },
      {
        "type": "cy:command",
        "severity": "success",
        "message": "assert\texpected **<input#TextField231.ms-TextField-field.field-146>** to be **visible**"
      },
      {
        "type": "cy:command",
        "severity": "success",
        "message": "xpath\t//label[normalize-space(text())='No. Employees']//following-sibling::div/input | //label[normalize-space(text())='No. Employees']//following-sibling::div/textarea"
      },
      {
        "type": "cy:command",
        "severity": "success",
        "message": "eq\t0"
      },
      {
        "type": "cy:command",
        "severity": "success",
        "message": "click\t"
      },
      {
        "type": "cy:command",
        "severity": "success",
        "message": "clear\t"
      },
      {
        "type": "cy:command",
        "severity": "success",
        "message": "type\t5, {force: true}"
      },
      {
        "type": "cy:command",
        "severity": "success",
        "message": "xpath\t//span[text()='Recurrent Supplier']//preceding-sibling::div/i"
      },
      {
        "type": "cy:command",
        "severity": "success",
        "message": "scrollIntoView\t"
      },
      {
        "type": "cy:command",
        "severity": "success",
        "message": "assert\texpected **<i.ms-Checkbox-checkmark.checkmark-166>** to exist in the DOM"
      },
      {
        "type": "cy:command",
        "severity": "success",
        "message": "xpath\t//span[text()='Recurrent Supplier']//preceding-sibling::div/i"
      },
      {
        "type": "cy:command",
        "severity": "success",
        "message": "scrollIntoView\t"
      },
      {
        "type": "cy:command",
        "severity": "success",
        "message": "eq\t0"
      },
      {
        "type": "cy:command",
        "severity": "success",
        "message": "click\t{force: true}"
      },
      {
        "type": "cy:command",
        "severity": "success",
        "message": "xpath\t//label[normalize-space(text())='Date']//following-sibling::div/input"
      },
      {
        "type": "cy:command",
        "severity": "success",
        "message": "scrollIntoView\t"
      },
      {
        "type": "cy:command",
        "severity": "success",
        "message": "assert\texpected **<input#DatePicker235-label.ms-TextField-field.field-173>** to exist in the DOM"
      },
      {
        "type": "cy:command",
        "severity": "success",
        "message": "xpath\t//label[normalize-space(text())='Date']//following-sibling::div/input"
      },
      {
        "type": "cy:command",
        "severity": "success",
        "message": "eq\t0"
      },
      {
        "type": "cy:command",
        "severity": "success",
        "message": "click\t"
      },
      {
        "type": "cy:command",
        "severity": "success",
        "message": "get\t[id*='DatePickerDay-monthAndYear']"
      },
      {
        "type": "cy:log",
        "severity": "success",
        "message": "check March=March"
      },
      {
        "type": "cy:command",
        "severity": "success",
        "message": "get\ttd>button[class*='DatePicker-day']"
      },
      {
        "type": "cy:command",
        "severity": "success",
        "message": "find\tspan"
      },
      {
        "type": "cy:command",
        "severity": "success",
        "message": "wrap\t<span>"
      },
      {
        "type": "cy:command",
        "severity": "success",
        "message": "click\t"
      },
      {
        "type": "cy:command",
        "severity": "success",
        "message": "xpath\t//label[normalize-space(text())='Address']//following-sibling::div/input | //label[normalize-space(text())='Address']//following-sibling::div/textarea"
      },
      {
        "type": "cy:command",
        "severity": "success",
        "message": "scrollIntoView\t"
      },
      {
        "type": "cy:command",
        "severity": "success",
        "message": "assert\texpected **<input#TextField240.ms-TextField-field.field-146>** to be **visible**"
      },
      {
        "type": "cy:command",
        "severity": "success",
        "message": "xpath\t//label[normalize-space(text())='Address']//following-sibling::div/input | //label[normalize-space(text())='Address']//following-sibling::div/textarea"
      },
      {
        "type": "cy:command",
        "severity": "success",
        "message": "eq\t0"
      },
      {
        "type": "cy:command",
        "severity": "success",
        "message": "click\t"
      },
      {
        "type": "cy:command",
        "severity": "success",
        "message": "clear\t"
      },
      {
        "type": "cy:command",
        "severity": "success",
        "message": "type\tAtmecs Global Technology, {force: true}"
      },
      {
        "type": "cy:command",
        "severity": "success",
        "message": "xpath\t//label[normalize-space(text())='Address 2']//following-sibling::div/input | //label[normalize-space(text())='Address 2']//following-sibling::div/textarea"
      },
      {
        "type": "cy:command",
        "severity": "success",
        "message": "scrollIntoView\t"
      },
      {
        "type": "cy:command",
        "severity": "success",
        "message": "assert\texpected **<input#TextField243.ms-TextField-field.field-146>** to be **visible**"
      },
      {
        "type": "cy:command",
        "severity": "success",
        "message": "xpath\t//label[normalize-space(text())='Address 2']//following-sibling::div/input | //label[normalize-space(text())='Address 2']//following-sibling::div/textarea"
      },
      {
        "type": "cy:command",
        "severity": "success",
        "message": "eq\t0"
      },
      {
        "type": "cy:command",
        "severity": "success",
        "message": "click\t"
      },
      {
        "type": "cy:command",
        "severity": "success",
        "message": "clear\t"
      },
      {
        "type": "cy:command",
        "severity": "success",
        "message": "type\tIndia Land, {force: true}"
      },
      {
        "type": "cy:command",
        "severity": "success",
        "message": "xpath\t//label[normalize-space(text())='City']//following-sibling::div/input | //label[normalize-space(text())='City']//following-sibling::div/textarea"
      },
      {
        "type": "cy:command",
        "severity": "success",
        "message": "scrollIntoView\t"
      },
      {
        "type": "cy:command",
        "severity": "success",
        "message": "assert\texpected **<input#TextField246.ms-TextField-field.field-146>** to be **visible**"
      },
      {
        "type": "cy:command",
        "severity": "success",
        "message": "xpath\t//label[normalize-space(text())='City']//following-sibling::div/input | //label[normalize-space(text())='City']//following-sibling::div/textarea"
      },
      {
        "type": "cy:command",
        "severity": "success",
        "message": "eq\t0"
      },
      {
        "type": "cy:command",
        "severity": "success",
        "message": "click\t"
      },
      {
        "type": "cy:command",
        "severity": "success",
        "message": "clear\t"
      },
      {
        "type": "cy:command",
        "severity": "success",
        "message": "type\tCoimbatore, {force: true}"
      }
    ]
  }
}